%YAML 1.1
%TAG !u! tag:unity3d.com,2011:
--- !u!1045 &1
EditorBuildSettings:
  m_ObjectHideFlags: 0
  serializedVersion: 2
  m_Scenes:
  - enabled: 1
    path: Assets/_GameFolder/Scenes/Main.unity
    guid: fe09936bf4082de4da6bc503ffac7d22
  m_configObjects:
    Unity.XR.Oculus.Settings: {fileID: 11400000, guid: 006665ba3e55c74489202e4edb98357e,
      type: 2}
    com.unity.xr.management.loader_settings: {fileID: 11400000, guid: f32b211e8a7c56f4b8585a471495e886,
      type: 2}
